status:
	:empty		#\#		read-line	:empty
			<blank>	<drop>		:empty
			*		<cache>	:spec
	:spec		\n		<drop>		:
					<check-cache>	:empty
			#\#		read-line	:
					<check-cache>	:empty
			space,tab	<drop>		:
					<check-cache>	:tail
			*		<cache>	:spec
	:tail		space,tab	<drop>		:tail
			#\#		read-line	:empty
			\n		<drop>		:empty
			*		<error>
















